<?xml version="1.0" encoding="utf-8"?>
<!-- Generator: Adobe Illustrator 20.1.0, SVG Export Plug-In . SVG Version: 6.00 Build 0)  -->
<svg version="1.1" id="Layer_1" xmlns="http://www.w3.org/2000/svg" xmlns:xlink="http://www.w3.org/1999/xlink" x="0px" y="0px"
	 viewBox="0 0 24 24" style="enable-background:new 0 0 24 24;" xml:space="preserve">
<style type="text/css">
	.st0{fill:#FFFFFF;stroke:#757575;}
</style>
<path class="st0" d="M12,2.5l2.4,7h7.1l-5.7,4.3l2.7,7.8L12,16.6l-6.5,4.9l2.7-7.8L2.5,9.5h7.1L12,2.5z"/>
</svg>
